<?xml version="1.0" encoding="UTF-8" standalone="no"?>
<svg
   width="306.67001mm"
   height="57.964626mm"
   viewBox="0 0 306.67001 57.964626"
   version="1.1"
   id="svg8"
   inkscape:version="1.2.2 (b0a8486541, 2022-12-01)"
   sodipodi:docname="logo.svg"
   inkscape:export-filename="/home/veits/devel/Bioinformatics/DataAnalysis/ShinyApps/CoExpresso/www/logo.png"
   inkscape:export-xdpi="200"
   inkscape:export-ydpi="200"
   xmlns:inkscape="http://www.inkscape.org/namespaces/inkscape"
   xmlns:sodipodi="http://sodipodi.sourceforge.net/DTD/sodipodi-0.dtd"
   xmlns:xlink="http://www.w3.org/1999/xlink"
   xmlns="http://www.w3.org/2000/svg"
   xmlns:svg="http://www.w3.org/2000/svg"
   xmlns:rdf="http://www.w3.org/1999/02/22-rdf-syntax-ns#"
   xmlns:cc="http://creativecommons.org/ns#"
   xmlns:dc="http://purl.org/dc/elements/1.1/">
  <defs
     id="defs2">
    <linearGradient
       id="linearGradient2927"
       inkscape:collect="always">
      <stop
         id="stop2929"
         style="stop-color:white"
         offset="0" />
      <stop
         id="stop2931"
         style="stop-color:white;stop-opacity:0"
         offset="1" />
    </linearGradient>
    <linearGradient
       id="linearGradient2965">
      <stop
         id="stop2967"
         style="stop-color:#cbf9ff;stop-opacity:.66327"
         offset="0" />
      <stop
         id="stop2969"
         style="stop-color:#fff2f2;stop-opacity:0"
         offset="1" />
    </linearGradient>
    <radialGradient
       id="radialGradient3222"
       fx="-212.82001"
       fy="-1987.7"
       xlink:href="#linearGradient2927"
       gradientUnits="userSpaceOnUse"
       cy="-2034.8"
       cx="-240.85001"
       gradientTransform="matrix(-0.0359403,-0.01901666,0.02804125,-0.01821429,115.18849,64.978946)"
       r="127.14"
       inkscape:collect="always" />
    <linearGradient
       id="linearGradient2881"
       inkscape:collect="always">
      <stop
         id="stop2883"
         style="stop-color:#999"
         offset="0" />
      <stop
         id="stop2885"
         style="stop-color:#999;stop-opacity:0"
         offset="1" />
    </linearGradient>
    <radialGradient
       id="radialGradient2912"
       gradientUnits="userSpaceOnUse"
       cy="302.75"
       cx="66.015999"
       gradientTransform="matrix(1,0,0,0.87234,0,38.649)"
       r="18.358999"
       inkscape:collect="always">
      <stop
         id="stop2908"
         style="stop-color:#e3b36a"
         offset="0" />
      <stop
         id="stop2910"
         style="stop-color:#e3b36a;stop-opacity:0"
         offset="1" />
    </radialGradient>
    <radialGradient
       id="radialGradient2937"
       xlink:href="#linearGradient2927"
       gradientUnits="userSpaceOnUse"
       cy="-2546.8999"
       cx="-520.71002"
       gradientTransform="matrix(0.04117697,0,0,0.01879952,43.723361,179.40999)"
       r="26.429001"
       inkscape:collect="always" />
    <linearGradient
       id="linearGradient3176"
       y2="-95.297997"
       gradientUnits="userSpaceOnUse"
       x2="313.01999"
       gradientTransform="matrix(0.46981,0.5587,-0.11703,0.72053,-50.501,21.644)"
       y1="-95.043999"
       x1="300.66"
       inkscape:collect="always">
      <stop
         id="stop2999"
         style="stop-color:#e6e6e6"
         offset="0" />
      <stop
         id="stop3001"
         style="stop-color:#e6e6e6;stop-opacity:0"
         offset="1" />
    </linearGradient>
    <linearGradient
       id="linearGradient3179"
       y2="194.62"
       gradientUnits="userSpaceOnUse"
       x2="184.48"
       gradientTransform="matrix(0.72998,0,0.17708,0.70911,-53.455,20.031)"
       y1="194.62"
       x1="179.97"
       inkscape:collect="always">
      <stop
         id="stop2953"
         style="stop-color:#e6e6e6"
         offset="0" />
      <stop
         id="stop2955"
         style="stop-color:#e6e6e6;stop-opacity:0"
         offset="1" />
    </linearGradient>
    <linearGradient
       id="linearGradient3186"
       y2="588.09998"
       gradientUnits="userSpaceOnUse"
       x2="-140.67"
       gradientTransform="matrix(0.2264,0,0.037977,0.22082,113.79,-6.2884)"
       y1="652.23999"
       x1="-343.16"
       inkscape:collect="always">
      <stop
         id="stop3021"
         style="stop-color:#999"
         offset="0" />
      <stop
         id="stop3027"
         style="stop-color:white;stop-opacity:.49804"
         offset=".5" />
      <stop
         id="stop3023"
         style="stop-color:#999"
         offset="1" />
    </linearGradient>
    <linearGradient
       id="linearGradient3200"
       y2="253.78999"
       xlink:href="#linearGradient2881"
       gradientUnits="userSpaceOnUse"
       x2="564.28998"
       gradientTransform="matrix(-0.05567362,0,0,0.05567362,88.622281,103.46004)"
       y1="318.04001"
       x1="678.73999"
       inkscape:collect="always" />
    <linearGradient
       id="linearGradient3206"
       y2="262.35999"
       xlink:href="#linearGradient2881"
       gradientUnits="userSpaceOnUse"
       x2="390"
       gradientTransform="matrix(0.05567362,0,0,0.05567362,47.068939,103.77833)"
       y1="278.04001"
       x1="678.73999"
       inkscape:collect="always" />
    <radialGradient
       id="radialGradient3210"
       fx="-314.60999"
       fy="-2371.3"
       xlink:href="#linearGradient2927"
       gradientUnits="userSpaceOnUse"
       cy="-2031.6"
       cx="-265.85999"
       gradientTransform="matrix(-0.06940814,0.00210619,-0.00190696,-0.01318075,46.456958,100.11915)"
       r="127.14"
       inkscape:collect="always" />
    <radialGradient
       id="radialGradient3213"
       fx="-312.14001"
       fy="-2205.1001"
       gradientUnits="userSpaceOnUse"
       cy="-2076.2"
       cx="-309.29001"
       gradientTransform="matrix(0.33282,-5.7844e-4,-0.0015784,-0.363,268.82,-588.85)"
       r="150.71001"
       inkscape:collect="always">
      <stop
         id="stop3172"
         style="stop-color:white"
         offset="0" />
      <stop
         id="stop3174"
         style="stop-color:white;stop-opacity:0"
         offset="1" />
    </radialGradient>
    <linearGradient
       id="linearGradient3216"
       y2="635.21997"
       gradientUnits="userSpaceOnUse"
       x2="297.14001"
       gradientTransform="matrix(0.21042,0,0,0.21042,76.666,30.428)"
       y1="635.21997"
       x1="92.857002"
       inkscape:collect="always">
      <stop
         id="stop3097"
         style="stop-color:#999"
         offset="0" />
      <stop
         id="stop3099"
         style="stop-color:#999;stop-opacity:0"
         offset="1" />
    </linearGradient>
    <radialGradient
       id="radialGradient3225"
       fx="118.3"
       fy="227.89999"
       gradientUnits="userSpaceOnUse"
       cy="250.81"
       cx="137.38"
       gradientTransform="matrix(1,0,0,0.3319,0,167.56)"
       r="117.18"
       inkscape:collect="always">
      <stop
         id="stop2879"
         style="stop-color:black;stop-opacity:.69072"
         offset="0" />
      <stop
         id="stop2881"
         style="stop-color:black;stop-opacity:0"
         offset="1" />
    </radialGradient>
    <radialGradient
       id="radialGradient2947"
       fx="103.98"
       fy="159.87"
       gradientUnits="userSpaceOnUse"
       cy="172.5"
       cx="101.51"
       gradientTransform="matrix(-0.88064,-1.4631,1.2303,-0.74053,-22.655,403.87)"
       r="31.117001"
       inkscape:collect="always">
      <stop
         id="stop2943"
         style="stop-color:#e6e6e6"
         offset="0" />
      <stop
         id="stop2949"
         style="stop-color:#e6e6e6"
         offset=".5" />
      <stop
         id="stop2951"
         style="stop-color:#e6e6e6"
         offset=".75" />
      <stop
         id="stop2945"
         style="stop-color:#e6e6e6;stop-opacity:0"
         offset="1" />
    </radialGradient>
    <radialGradient
       inkscape:collect="always"
       xlink:href="#linearGradient2927"
       id="radialGradient1127"
       gradientUnits="userSpaceOnUse"
       gradientTransform="matrix(0.04117697,0,0,0.01879952,47.395855,190.51797)"
       cx="-520.71002"
       cy="-2546.8999"
       r="26.429001" />
    <radialGradient
       inkscape:collect="always"
       xlink:href="#radialGradient3225"
       id="radialGradient1189"
       gradientUnits="userSpaceOnUse"
       gradientTransform="matrix(0.18653919,0,0,0.08294059,113.37141,124.58404)"
       cx="137.38"
       cy="250.81"
       fx="118.3"
       fy="227.89999"
       r="117.18" />
    <linearGradient
       inkscape:collect="always"
       xlink:href="#linearGradient3216"
       id="linearGradient1191"
       gradientUnits="userSpaceOnUse"
       gradientTransform="matrix(0.05567362,0,0,0.05567362,118.20958,99.244699)"
       x1="92.857002"
       y1="635.21997"
       x2="297.14001"
       y2="635.21997" />
    <radialGradient
       inkscape:collect="always"
       xlink:href="#radialGradient3213"
       id="radialGradient1193"
       gradientUnits="userSpaceOnUse"
       gradientTransform="matrix(0.08805862,-1.5304558e-4,-4.1761833e-4,-0.09604375,169.05033,-64.605937)"
       cx="-309.29001"
       cy="-2076.2"
       fx="-312.14001"
       fy="-2205.1001"
       r="150.71001" />
    <radialGradient
       inkscape:collect="always"
       xlink:href="#linearGradient2927"
       id="radialGradient1195"
       gradientUnits="userSpaceOnUse"
       gradientTransform="matrix(-0.06940814,0.00210619,-0.00190696,-0.01318075,120.5403,100.11915)"
       cx="-265.85999"
       cy="-2031.6"
       fx="-314.60999"
       fy="-2371.3"
       r="127.14" />
    <radialGradient
       inkscape:collect="always"
       xlink:href="#linearGradient2927"
       id="radialGradient1197"
       gradientUnits="userSpaceOnUse"
       gradientTransform="matrix(-0.0359403,-0.01901666,0.02804125,-0.01821429,189.41667,60.34419)"
       cx="-240.85001"
       cy="-2034.8"
       fx="-212.82001"
       fy="-1987.7"
       r="127.14" />
    <linearGradient
       inkscape:collect="always"
       xlink:href="#linearGradient2881"
       id="linearGradient1199"
       gradientUnits="userSpaceOnUse"
       gradientTransform="matrix(0.05567362,0,0,0.05567362,121.15228,103.77833)"
       x1="678.73999"
       y1="278.04001"
       x2="390"
       y2="262.35999" />
    <linearGradient
       inkscape:collect="always"
       xlink:href="#linearGradient2881"
       id="linearGradient1201"
       gradientUnits="userSpaceOnUse"
       gradientTransform="matrix(-0.05567362,0,0,0.05567362,162.70562,103.46004)"
       x1="678.73999"
       y1="318.04001"
       x2="564.28998"
       y2="253.78999" />
    <radialGradient
       inkscape:collect="always"
       xlink:href="#radialGradient2912"
       id="radialGradient1203"
       gradientUnits="userSpaceOnUse"
       gradientTransform="matrix(0.27942645,0,0,0.16848422,121.39358,68.721042)"
       cx="66.015999"
       cy="302.75"
       r="18.358999" />
    <radialGradient
       inkscape:collect="always"
       xlink:href="#linearGradient2927"
       id="radialGradient1209"
       gradientUnits="userSpaceOnUse"
       gradientTransform="matrix(0.04117697,0,0,0.01879952,121.85846,218.10021)"
       cx="-520.71002"
       cy="-2546.8999"
       r="26.429001" />
    <linearGradient
       inkscape:collect="always"
       xlink:href="#linearGradient3186"
       id="linearGradient1211"
       gradientUnits="userSpaceOnUse"
       gradientTransform="matrix(0.05990167,0,0.01004808,0.05842529,128.03197,89.530151)"
       x1="-343.16"
       y1="652.23999"
       x2="-140.67"
       y2="588.09998" />
    <radialGradient
       inkscape:collect="always"
       xlink:href="#radialGradient2947"
       id="radialGradient1213"
       gradientUnits="userSpaceOnUse"
       gradientTransform="matrix(-0.23300266,-0.38711187,0.32551687,-0.19593189,91.930901,198.05123)"
       cx="101.51"
       cy="172.5"
       fx="103.98"
       fy="159.87"
       r="31.117001" />
    <radialGradient
       inkscape:collect="always"
       xlink:href="#linearGradient2927"
       id="radialGradient1215"
       gradientUnits="userSpaceOnUse"
       gradientTransform="matrix(0.04117697,0,0,0.01879952,118.18597,206.99222)"
       cx="-520.71002"
       cy="-2546.8999"
       r="26.429001" />
    <linearGradient
       inkscape:collect="always"
       xlink:href="#linearGradient3179"
       id="linearGradient1217"
       gradientUnits="userSpaceOnUse"
       gradientTransform="matrix(0.19314054,0,0.04685242,0.18761869,83.781734,96.493826)"
       x1="179.97"
       y1="194.62"
       x2="184.48"
       y2="194.62" />
    <linearGradient
       inkscape:collect="always"
       xlink:href="#linearGradient3176"
       id="linearGradient1219"
       gradientUnits="userSpaceOnUse"
       gradientTransform="matrix(0.12430389,0.14782271,-0.03096419,0.19064023,84.563313,96.920599)"
       x1="300.66"
       y1="-95.043999"
       x2="313.01999"
       y2="-95.297997" />
    <radialGradient
       inkscape:collect="always"
       xlink:href="#radialGradient3225"
       id="radialGradient1310"
       gradientUnits="userSpaceOnUse"
       gradientTransform="matrix(0.18653919,0,0,0.08294059,39.288073,124.58404)"
       cx="137.38"
       cy="250.81"
       fx="118.3"
       fy="227.89999"
       r="117.18" />
    <linearGradient
       inkscape:collect="always"
       xlink:href="#linearGradient3216"
       id="linearGradient1312"
       gradientUnits="userSpaceOnUse"
       gradientTransform="matrix(0.05567362,0,0,0.05567362,44.126244,99.244699)"
       x1="92.857002"
       y1="635.21997"
       x2="297.14001"
       y2="635.21997" />
    <radialGradient
       inkscape:collect="always"
       xlink:href="#radialGradient3213"
       id="radialGradient1314"
       gradientUnits="userSpaceOnUse"
       gradientTransform="matrix(0.08805862,-1.5304558e-4,-4.1761833e-4,-0.09604375,94.966989,-64.605937)"
       cx="-309.29001"
       cy="-2076.2"
       fx="-312.14001"
       fy="-2205.1001"
       r="150.71001" />
    <radialGradient
       inkscape:collect="always"
       xlink:href="#radialGradient2912"
       id="radialGradient1316"
       gradientUnits="userSpaceOnUse"
       gradientTransform="matrix(0.27942645,0,0,0.16848422,47.310239,68.721042)"
       cx="66.015999"
       cy="302.75"
       r="18.358999" />
    <linearGradient
       inkscape:collect="always"
       xlink:href="#linearGradient3186"
       id="linearGradient1318"
       gradientUnits="userSpaceOnUse"
       gradientTransform="matrix(0.05990167,0,0.01004808,0.05842529,53.948635,89.530151)"
       x1="-343.16"
       y1="652.23999"
       x2="-140.67"
       y2="588.09998" />
    <radialGradient
       inkscape:collect="always"
       xlink:href="#radialGradient2947"
       id="radialGradient1320"
       gradientUnits="userSpaceOnUse"
       gradientTransform="matrix(-0.23300266,-0.38711187,0.32551687,-0.19593189,17.847563,198.05123)"
       cx="101.51"
       cy="172.5"
       fx="103.98"
       fy="159.87"
       r="31.117001" />
    <linearGradient
       inkscape:collect="always"
       xlink:href="#linearGradient3179"
       id="linearGradient1322"
       gradientUnits="userSpaceOnUse"
       gradientTransform="matrix(0.19314054,0,0.04685242,0.18761869,9.6983961,96.493826)"
       x1="179.97"
       y1="194.62"
       x2="184.48"
       y2="194.62" />
    <linearGradient
       inkscape:collect="always"
       xlink:href="#linearGradient3176"
       id="linearGradient1324"
       gradientUnits="userSpaceOnUse"
       gradientTransform="matrix(0.12430389,0.14782271,-0.03096419,0.19064023,10.479975,96.920599)"
       x1="300.66"
       y1="-95.043999"
       x2="313.01999"
       y2="-95.297997" />
  </defs>
  <sodipodi:namedview
     id="base"
     pagecolor="#ffffff"
     bordercolor="#666666"
     borderopacity="1.0"
     inkscape:pageopacity="0.0"
     inkscape:pageshadow="2"
     inkscape:zoom="0.7"
     inkscape:cx="474.28571"
     inkscape:cy="185"
     inkscape:document-units="mm"
     inkscape:current-layer="layer1"
     inkscape:document-rotation="0"
     showgrid="false"
     inkscape:window-width="1870"
     inkscape:window-height="1052"
     inkscape:window-x="0"
     inkscape:window-y="0"
     inkscape:window-maximized="1"
     fit-margin-top="0"
     fit-margin-left="0"
     fit-margin-right="0"
     fit-margin-bottom="0"
     inkscape:showpageshadow="2"
     inkscape:pagecheckerboard="0"
     inkscape:deskcolor="#d1d1d1" />
  <metadata
     id="metadata5">
    <rdf:RDF>
      <cc:Work
         rdf:about="">
        <dc:format>image/svg+xml</dc:format>
        <dc:type
           rdf:resource="http://purl.org/dc/dcmitype/StillImage" />
      </cc:Work>
    </rdf:RDF>
  </metadata>
  <g
     inkscape:label="Layer 1"
     inkscape:groupmode="layer"
     id="layer1"
     transform="translate(81.401109,-99.489547)">
    <g
       id="g1384"
       transform="matrix(-0.95533193,0.29553494,0.29553494,0.95533193,219.03147,-12.731173)">
      <ellipse
         id="path1988"
         style="fill:url(#radialGradient1310);fill-rule:evenodd;stroke-width:0.215906"
         cx="64.91497"
         cy="145.38695"
         rx="26.296835"
         ry="9.7186861" />
      <path
         id="path3116"
         sodipodi:rx="10.622643"
         sodipodi:ry="6.854825"
         style="fill:#999999;fill-rule:evenodd;stroke-width:0.724366"
         sodipodi:type="arc"
         sodipodi:cy="143.95926"
         sodipodi:cx="68.020691"
         sodipodi:end="6.2801146"
         sodipodi:start="0"
         sodipodi:arc-type="slice"
         d="m 78.643334,143.95926 a 10.622643,6.854825 0 0 1 -10.614488,6.85482 10.622643,6.854825 0 0 1 -10.630786,-6.8443 10.622643,6.854825 0 0 1 10.598167,-6.86533 10.622643,6.854825 0 0 1 10.647057,6.83376 l -10.622593,0.0211 z" />
      <g
         id="g2813"
         style="fill:#cccccc"
         transform="matrix(0.05567362,0,0,0.05567362,47.068939,103.77833)">
        <g
           id="g2836"
           style="fill:#cccccc">
          <path
             id="path2790"
             sodipodi:nodetypes="csccssccccsc"
             style="fill:#cccccc;fill-rule:evenodd"
             d="m 374.91,68.393 c -190.84,0 -345.72,79.767 -345.72,178.07 -0.002,14.22 3.276,28.07 9.404,41.34 l 131.97,420.41 c 14.37,70.8 100.09,125.25 203.6,125.25 31.38,0 61.12,-5.01 87.74,-13.96 61.11,-20.54 105.73,-61.85 115.82,-111.11 h 0.19 l 137.12,-426.09 h -1.41 c 4.6,-11.58 7,-23.57 7,-35.84 0,-98.3 -154.88,-178.07 -345.71,-178.07 z" />
          <path
             id="path2808"
             sodipodi:nodetypes="ccc"
             style="fill:#cccccc;fill-rule:evenodd;stroke:#dadada;stroke-width:2.5392px"
             d="m 713.33,283.59 3.06,-12.65 2.42,-14.53" />
        </g>
      </g>
      <path
         id="path2760"
         style="fill:#ffffff;fill-rule:evenodd"
         sodipodi:type="star"
         sodipodi:sides="3"
         sodipodi:r1="364.45938"
         sodipodi:r2="372.15213"
         sodipodi:arg1="2.0619237"
         sodipodi:arg2="0.0005425717"
         transform="matrix(0.04953794,0,0,0.02428161,130.60372,121.49404)"
         inkscape:randomized="0"
         sodipodi:cy="-176.20924"
         sodipodi:cx="-1262.8571"
         inkscape:rounded="0.45913031"
         inkscape:flatsided="false"
         d="m -1434.7435,145.17167 c 251.1423,145.1387 553.42026,-31.26581 544.03852,-321.17899 -9.56228,-295.49198 -308.43292,-457.46544 -564.53292,-309.75041 -251.2649,144.92622 -249.6331,494.908913 6.1299,631.74068 260.6847,139.46481 550.39316,-38.37799 550.5182,-334.02462 0.12268,-290.06492 -303.7871,-463.64311 -550.1684,-310.56168 -251.1224,156.02716 -241.9603,495.843417 14.0147,643.77502 z" />
      <path
         id="rect3076"
         sodipodi:nodetypes="ccccscc"
         style="fill:url(#linearGradient1312);fill-rule:evenodd;stroke-width:0.264583"
         d="m 49.295673,119.89596 c 0,0 1.475316,2.76489 4.930775,4.85245 5.781145,2.36803 6.204479,2.0664 6.204479,2.0664 l 2.624666,22.5081 c 0,0 -2.098145,-0.78052 -3.608916,-1.83356 -1.510771,-1.05304 -2.595563,-3.25702 -2.595563,-3.25702 z" />
      <path
         id="rect3168"
         sodipodi:nodetypes="ccccccc"
         style="fill:url(#radialGradient1314);fill-rule:evenodd;stroke-width:0.264583"
         d="m 56.710885,147.01575 11.321521,2.82046 13.335,-2.97921 0.378354,-19.80406 c 0,0 -9.099021,0.78845 -14.25575,0.8255 -5.535083,0 -11.911542,-0.98425 -11.911542,-0.98425 z" />
      <path
         id="path3181"
         sodipodi:nodetypes="csscs"
         style="fill:url(#radialGradient3210);fill-rule:evenodd;stroke-width:0.264583"
         d="m 67.032281,130.71212 c -3.907896,0 -7.08025,-2.24366 -7.08025,-5.01121 0,-2.76489 3.288771,-5.95841 7.08025,-5.00856 l 13.678958,3.41842 c -4.725458,2.30981 -7.596187,5.8076 -13.678958,6.60135 z" />
      <path
         id="path3220"
         sodipodi:rx="6.9430265"
         sodipodi:ry="4.8660846"
         style="fill:url(#radialGradient3222);fill-rule:evenodd;stroke-width:0.0768444"
         sodipodi:type="arc"
         transform="matrix(0.99804876,0.0624393,0,1,0,0)"
         sodipodi:cy="106.42462"
         sodipodi:cx="66.394073"
         sodipodi:end="6.2797053"
         sodipodi:start="0"
         sodipodi:arc-type="slice"
         d="m 73.3371,106.42462 a 6.9430265,4.8660846 0 0 1 -6.936986,4.86608 6.9430265,4.8660846 0 0 1 -6.949057,-4.85761 6.9430265,4.8660846 0 0 1 6.924895,-4.87454 6.9430265,4.8660846 0 0 1 6.961106,4.84914 l -6.942985,0.0169 z" />
      <path
         id="path2819"
         sodipodi:nodetypes="ccscc"
         style="fill:url(#linearGradient3206);fill-rule:evenodd;stroke-width:0.264583"
         d="m 76.72926,114.08624 c -8.120063,-0.63633 -24.571854,1.41869 -25.098375,5.23028 1.465792,3.04006 8.784167,6.30502 16.631708,6.30502 7.961313,0 17.234958,-4.29419 16.560271,-7.31044 -0.03969,0.84138 -0.166688,-3.35015 -8.093604,-4.22486 z" />
      <path
         id="path3231"
         sodipodi:rx="4.0561194"
         sodipodi:ry="0.55673188"
         style="fill:#ffffff;fill-rule:evenodd;stroke-width:0.0277201"
         sodipodi:type="arc"
         sodipodi:cy="126.65683"
         sodipodi:cx="69.101097"
         sodipodi:end="6.2801146"
         sodipodi:start="0"
         sodipodi:arc-type="slice"
         d="m 73.157217,126.65683 a 4.0561194,0.55673188 0 0 1 -4.053006,0.55673 4.0561194,0.55673188 0 0 1 -4.059229,-0.55588 4.0561194,0.55673188 0 0 1 4.046774,-0.55758 4.0561194,0.55673188 0 0 1 4.065441,0.55502 l -4.0561,0.002 z" />
      <path
         id="rect3233"
         sodipodi:nodetypes="ccccc"
         style="fill:#ffffff;fill-rule:evenodd;stroke:#ffffff;stroke-width:0.77941;stroke-dasharray:0.0779417, 0.0779417"
         d="m 66.487239,128.89973 h 5.450417 l -2.309813,18.33827 -2.452687,-0.79375 z" />
      <path
         id="path3244"
         sodipodi:rx="2.1871781"
         sodipodi:ry="0.24269074"
         style="fill:#ffffff;fill-rule:evenodd;stroke-width:0.0134396"
         sodipodi:type="arc"
         sodipodi:cy="108.46586"
         sodipodi:cx="67.110069"
         sodipodi:end="6.2801146"
         sodipodi:start="0"
         sodipodi:arc-type="slice"
         d="m 69.297247,108.46586 a 2.1871781,0.24269074 0 0 1 -2.185499,0.24269 2.1871781,0.24269074 0 0 1 -2.188854,-0.24232 2.1871781,0.24269074 0 0 1 2.182138,-0.24306 2.1871781,0.24269074 0 0 1 2.192205,0.24194 l -2.187168,7.5e-4 z" />
      <path
         id="path2050"
         sodipodi:nodetypes="cscscc"
         style="fill:url(#linearGradient3200);fill-rule:evenodd;stroke-width:0.264583"
         d="m 64.529322,109.1552 c 7.000875,0 16.383,4.66301 18.904479,8.38014 0.346605,0.51118 0.563563,1.0033 0.627063,1.46368 -1.465792,3.03742 -8.784167,6.30502 -16.631708,6.30502 -7.961313,0 -16.838083,-4.53231 -16.163396,-7.55121 1.074208,-4.08887 7.482417,-4.70059 13.263562,-8.59763 z" />
      <g
         id="g2015"
         transform="matrix(0.19314054,0,0,0.19314054,26.474461,61.915166)">
        <path
           id="path2012"
           sodipodi:nodetypes="ccscc"
           style="fill:#be8124;fill-rule:evenodd"
           d="m 216.61,280.46 c -33.15,0 -55.8,10.2 -73.96,26.3 10.42,11.77 39.84,-11.9 73,-11.9 34.45,0 67.3,23.56 76.68,11.08 -20.55,-18.48 -41.24,-25.48 -75.72,-25.48 z" />
        <path
           id="path1965"
           sodipodi:nodetypes="ccscc"
           style="fill:#28170b;fill-rule:evenodd"
           d="m 215.91,283.91 c -32.24,0 -53.9,10.61 -70.41,25.6 14.56,10.61 36.6,17.61 68.86,17.61 33.51,0 59.76,-6.81 75.23,-19.23 -18.89,-17.28 -42.74,-23.98 -73.68,-23.98 z" />
      </g>
      <path
         id="path2019"
         sodipodi:rx="5.130095"
         sodipodi:ry="3.0932665"
         style="opacity:0.5;fill:url(#radialGradient1316);fill-rule:evenodd;stroke-width:0.232311"
         sodipodi:type="arc"
         sodipodi:cy="119.73019"
         sodipodi:cx="65.756752"
         sodipodi:end="6.2801146"
         sodipodi:start="0"
         sodipodi:arc-type="slice"
         d="m 70.886847,119.73019 a 5.130095,3.0932665 0 0 1 -5.126157,3.09326 5.130095,3.0932665 0 0 1 -5.134027,-3.08851 5.130095,3.0932665 0 0 1 5.118274,-3.09801 5.130095,3.0932665 0 0 1 5.141886,3.08376 l -5.130071,0.009 z" />
      <path
         id="rect2929"
         sodipodi:nodetypes="ccsc"
         style="fill:#aaccff;fill-opacity:0.508015;fill-rule:evenodd;stroke-width:0.264583"
         d="m 63.635031,97.782082 c 8.048625,3.097208 1.391708,24.180268 0.907521,25.426458 -2.807229,-1.57163 -2.333625,-11.64987 -6.566959,-10.78653 -6.683375,1.36313 10.464271,-9.12469 5.659438,-14.639928 z" />
      <path
         id="rect2926"
         sodipodi:nodetypes="ccczc"
         style="fill:#aaccff;fill-opacity:0.508015;fill-rule:evenodd;stroke-width:0.264583"
         d="m 62.679885,101.47646 c 1.902354,-6.39498 -3.786187,10.14862 -7.228417,14.32269 2.891896,7.32208 9.55675,5.77426 12.448646,11.75649 0,0 -7.344833,-10.41003 -5.217583,-14.93017 2.12725,-4.5204 -0.0026,-11.14901 -0.0026,-11.14901 z" />
      <path
         id="path2935"
         sodipodi:rx="1.0882485"
         sodipodi:ry="0.49684322"
         style="fill:url(#radialGradient1127);fill-rule:evenodd;stroke-width:0.0303963"
         sodipodi:type="arc"
         transform="matrix(0.93105734,-0.36487289,0.17237124,0.98503206,0,0)"
         sodipodi:cy="142.63704"
         sodipodi:cx="25.954418"
         sodipodi:end="6.2801146"
         sodipodi:start="0"
         sodipodi:arc-type="slice"
         d="m 27.042667,142.63704 a 1.0882485,0.49684322 0 0 1 -1.087413,0.49684 1.0882485,0.49684322 0 0 1 -1.089083,-0.49608 1.0882485,0.49684322 0 0 1 1.085741,-0.4976 1.0882485,0.49684322 0 0 1 1.09075,0.49531 l -1.088244,0.002 z" />
      <path
         id="path2945"
         sodipodi:nodetypes="ccsssscsccsssc"
         style="fill:url(#linearGradient1318);fill-rule:evenodd;stroke-width:0.264583"
         d="m 43.179829,119.62608 c -1.635125,0.4789 -4.295246,2.28865 -4.432565,5.93461 0.08864,2.58233 1.996811,5.82612 5.845969,6.62516 3.977217,0.82815 7.397485,-2.29394 6.75984,-6.00075 -0.280459,-1.63777 0.280458,-1.45256 -0.621771,-2.73844 -0.142875,-0.20108 -0.840581,-2.42622 -1.199356,-3.05858 -0.131763,-0.23283 -0.06747,0.21961 -0.161396,0.35719 -0.160602,0.082 -0.318029,-0.0106 -0.44794,-0.11642 -0.941387,-0.77523 -3.019425,-1.61131 -5.742781,-1.00277 z m 1.06971,2.08756 c 2.597944,0 4.912519,1.12184 5.326857,3.53219 0.414602,2.41036 -1.771915,4.90008 -4.414573,4.20158 -3.045884,-0.80962 -3.033977,-2.74372 -3.070225,-3.07445 -0.277813,-2.54794 -0.440267,-4.65932 2.157941,-4.65932 z" />
      <path
         id="path2931"
         sodipodi:nodetypes="ccccccsccsssc"
         style="fill:url(#radialGradient1320);fill-rule:evenodd;stroke:#dadada;stroke-width:0.018179"
         d="m 45.479323,120.9146 c -3.54039,0.0953 -6.557963,3.01361 -5.818452,6.59606 1.350698,5.50598 6.652683,4.9239 10.200216,7.88194 3.444611,3.54542 5.021527,6.79715 5.021527,6.79715 l 1.098021,0.65881 c -1.357312,-5.76527 -2.799292,-11.50673 -4.259792,-17.24554 -0.910166,-3.60892 -2.185458,-4.61963 -5.897562,-4.68842 -0.115887,-0.003 -0.229923,-0.003 -0.343958,0 z m 0.575468,1.82563 c 2.575719,0 4.636823,1.49489 4.861719,3.86556 0.224896,2.37067 -1.684602,4.29683 -4.260321,4.29683 -2.575983,0 -4.31112,-1.71185 -4.536545,-4.08252 -0.225161,-2.37066 1.359164,-4.07987 3.935147,-4.07987 z" />
      <path
         id="path2048"
         sodipodi:rx="1.0882485"
         sodipodi:ry="0.49684322"
         style="fill:url(#radialGradient2937);fill-rule:evenodd;stroke-width:0.0303963"
         sodipodi:type="arc"
         transform="matrix(0.93105734,-0.36487289,0.17237124,0.98503206,0,0)"
         sodipodi:cy="131.52905"
         sodipodi:cx="22.281923"
         sodipodi:end="6.2801146"
         sodipodi:start="0"
         sodipodi:arc-type="slice"
         d="m 23.370172,131.52905 a 1.0882485,0.49684322 0 0 1 -1.087413,0.49685 1.0882485,0.49684322 0 0 1 -1.089083,-0.49608 1.0882485,0.49684322 0 0 1 1.085741,-0.49761 1.0882485,0.49684322 0 0 1 1.09075,0.49532 l -1.088244,0.002 z" />
      <path
         id="rect2941"
         sodipodi:nodetypes="csccc"
         style="fill:url(#linearGradient1322);fill-rule:evenodd;stroke-width:0.264583"
         d="m 50.75776,123.05773 c 0,0 0.769938,0.85989 0.820208,0.90752 3.540125,3.45546 4.942417,18.99179 4.942417,18.99179 l -0.605896,-0.15875 z" />
      <path
         id="rect2986"
         sodipodi:nodetypes="czcccc"
         style="fill:url(#linearGradient1324);fill-rule:evenodd;stroke-width:0.264583"
         d="m 49.868231,121.96764 c 0,0 0.397404,0.23019 0.841904,0.70909 0.431271,0.46302 1.124479,1.38906 1.124479,1.38906 l 0.505354,0.77787 -1.833562,-2.07168 z" />
      <path
         id="path3033"
         style="fill:#e6e6e6;fill-rule:evenodd;stroke-width:0.264583"
         d="m 46.207721,133.27064 c 1.175808,0.50007 2.347118,1.06363 3.387195,1.91559 3.607594,3.61421 5.332677,6.93208 5.332677,6.93208 l 1.129771,0.67204 c -0.878416,-3.17764 -1.783291,-6.35 -2.69875,-9.51971 z" />
    </g>
    <g
       id="g1415"
       transform="rotate(22.653231,138.99831,126.44386)">
      <ellipse
         id="ellipse1129"
         style="fill:url(#radialGradient1189);fill-rule:evenodd;stroke-width:0.215906"
         cx="138.99831"
         cy="145.38695"
         rx="26.296835"
         ry="9.7186861" />
      <path
         id="path1131"
         sodipodi:rx="10.622643"
         sodipodi:ry="6.854825"
         style="fill:#999999;fill-rule:evenodd;stroke-width:0.724366"
         sodipodi:type="arc"
         sodipodi:cy="143.95926"
         sodipodi:cx="142.10403"
         sodipodi:end="6.2801146"
         sodipodi:start="0"
         sodipodi:arc-type="slice"
         d="m 152.72668,143.95926 a 10.622643,6.854825 0 0 1 -10.61449,6.85482 10.622643,6.854825 0 0 1 -10.63079,-6.8443 10.622643,6.854825 0 0 1 10.59817,-6.86533 10.622643,6.854825 0 0 1 10.64706,6.83376 l -10.6226,0.0211 z" />
      <g
         id="g1139"
         style="fill:#cccccc"
         transform="matrix(0.05567362,0,0,0.05567362,121.15228,103.77833)">
        <g
           id="g1137"
           style="fill:#cccccc">
          <path
             id="path1133"
             sodipodi:nodetypes="csccssccccsc"
             style="fill:#cccccc;fill-rule:evenodd"
             d="m 374.91,68.393 c -190.84,0 -345.72,79.767 -345.72,178.07 -0.002,14.22 3.276,28.07 9.404,41.34 l 131.97,420.41 c 14.37,70.8 100.09,125.25 203.6,125.25 31.38,0 61.12,-5.01 87.74,-13.96 61.11,-20.54 105.73,-61.85 115.82,-111.11 h 0.19 l 137.12,-426.09 h -1.41 c 4.6,-11.58 7,-23.57 7,-35.84 0,-98.3 -154.88,-178.07 -345.71,-178.07 z" />
          <path
             id="path1135"
             sodipodi:nodetypes="ccc"
             style="fill:#cccccc;fill-rule:evenodd;stroke:#dadada;stroke-width:2.5392px"
             d="m 713.33,283.59 3.06,-12.65 2.42,-14.53" />
        </g>
      </g>
      <path
         id="path1141"
         style="fill:#ffffff;fill-rule:evenodd"
         sodipodi:type="star"
         sodipodi:sides="3"
         sodipodi:r1="364.45938"
         sodipodi:r2="372.15213"
         sodipodi:arg1="2.0619237"
         sodipodi:arg2="0.0005425717"
         transform="matrix(0.04953794,0,0,0.02428161,204.68706,121.49404)"
         inkscape:randomized="0"
         sodipodi:cy="-176.20924"
         sodipodi:cx="-1262.8571"
         inkscape:rounded="0.45913031"
         inkscape:flatsided="false"
         d="m -1434.7435,145.17167 c 251.1423,145.1387 553.42026,-31.26581 544.03852,-321.17899 -9.56228,-295.49198 -308.43292,-457.46544 -564.53292,-309.75041 -251.2649,144.92622 -249.6331,494.908913 6.1299,631.74068 260.6847,139.46481 550.39316,-38.37799 550.5182,-334.02462 0.12268,-290.06492 -303.7871,-463.64311 -550.1684,-310.56168 -251.1224,156.02716 -241.9603,495.843417 14.0147,643.77502 z" />
      <path
         id="path1143"
         sodipodi:nodetypes="ccccscc"
         style="fill:url(#linearGradient1191);fill-rule:evenodd;stroke-width:0.264583"
         d="m 123.37901,119.89596 c 0,0 1.47532,2.76489 4.93078,4.85245 5.78114,2.36803 6.20447,2.0664 6.20447,2.0664 l 2.62467,22.5081 c 0,0 -2.09814,-0.78052 -3.60892,-1.83356 -1.51077,-1.05304 -2.59556,-3.25702 -2.59556,-3.25702 z" />
      <path
         id="path1145"
         sodipodi:nodetypes="ccccccc"
         style="fill:url(#radialGradient1193);fill-rule:evenodd;stroke-width:0.264583"
         d="m 130.79422,147.01575 11.32152,2.82046 13.335,-2.97921 0.37836,-19.80406 c 0,0 -9.09902,0.78845 -14.25575,0.8255 -5.53509,0 -11.91154,-0.98425 -11.91154,-0.98425 z" />
      <path
         id="path1147"
         sodipodi:nodetypes="csscs"
         style="fill:url(#radialGradient1195);fill-rule:evenodd;stroke-width:0.264583"
         d="m 141.11562,130.71212 c -3.9079,0 -7.08025,-2.24366 -7.08025,-5.01121 0,-2.76489 3.28877,-5.95841 7.08025,-5.00856 l 13.67896,3.41842 c -4.72546,2.30981 -7.59619,5.8076 -13.67896,6.60135 z" />
      <path
         id="path1149"
         sodipodi:rx="6.9430265"
         sodipodi:ry="4.8660846"
         style="fill:url(#radialGradient1197);fill-rule:evenodd;stroke-width:0.0768444"
         sodipodi:type="arc"
         transform="matrix(0.99804876,0.0624393,0,1,0,0)"
         sodipodi:cy="101.78986"
         sodipodi:cx="140.62225"
         sodipodi:end="6.2797053"
         sodipodi:start="0"
         sodipodi:arc-type="slice"
         d="m 147.56528,101.78986 a 6.9430265,4.8660846 0 0 1 -6.93699,4.86609 6.9430265,4.8660846 0 0 1 -6.94905,-4.85762 6.9430265,4.8660846 0 0 1 6.92489,-4.874534 6.9430265,4.8660846 0 0 1 6.96111,4.849134 l -6.94299,0.0169 z" />
      <path
         id="path1151"
         sodipodi:nodetypes="ccscc"
         style="fill:url(#linearGradient1199);fill-rule:evenodd;stroke-width:0.264583"
         d="m 150.8126,114.08624 c -8.12006,-0.63633 -24.57186,1.41869 -25.09838,5.23028 1.46579,3.04006 8.78417,6.30502 16.63171,6.30502 7.96131,0 17.23496,-4.29419 16.56027,-7.31044 -0.0397,0.84138 -0.16669,-3.35015 -8.0936,-4.22486 z" />
      <path
         id="path1153"
         sodipodi:rx="4.0561194"
         sodipodi:ry="0.55673188"
         style="fill:#ffffff;fill-rule:evenodd;stroke-width:0.0277201"
         sodipodi:type="arc"
         sodipodi:cy="126.65683"
         sodipodi:cx="143.18443"
         sodipodi:end="6.2801146"
         sodipodi:start="0"
         sodipodi:arc-type="slice"
         d="m 147.24055,126.65683 a 4.0561194,0.55673188 0 0 1 -4.053,0.55673 4.0561194,0.55673188 0 0 1 -4.05923,-0.55588 4.0561194,0.55673188 0 0 1 4.04677,-0.55758 4.0561194,0.55673188 0 0 1 4.06544,0.55502 l -4.0561,0.002 z" />
      <path
         id="path1155"
         sodipodi:nodetypes="ccccc"
         style="fill:#ffffff;fill-rule:evenodd;stroke:#ffffff;stroke-width:0.77941;stroke-dasharray:0.0779417, 0.0779417"
         d="m 140.57058,128.89973 h 5.45041 l -2.30981,18.33827 -2.45269,-0.79375 z" />
      <path
         id="path1157"
         sodipodi:rx="2.1871781"
         sodipodi:ry="0.24269074"
         style="fill:#ffffff;fill-rule:evenodd;stroke-width:0.0134396"
         sodipodi:type="arc"
         sodipodi:cy="108.46586"
         sodipodi:cx="141.19341"
         sodipodi:end="6.2801146"
         sodipodi:start="0"
         sodipodi:arc-type="slice"
         d="m 143.38058,108.46586 a 2.1871781,0.24269074 0 0 1 -2.1855,0.24269 2.1871781,0.24269074 0 0 1 -2.18885,-0.24232 2.1871781,0.24269074 0 0 1 2.18214,-0.24306 2.1871781,0.24269074 0 0 1 2.1922,0.24194 l -2.18716,7.5e-4 z" />
      <path
         id="path1159"
         sodipodi:nodetypes="cscscc"
         style="fill:url(#linearGradient1201);fill-rule:evenodd;stroke-width:0.264583"
         d="m 138.61266,109.1552 c 7.00088,0 16.383,4.66301 18.90448,8.38014 0.3466,0.51118 0.56356,1.0033 0.62706,1.46368 -1.46579,3.03742 -8.78416,6.30502 -16.63171,6.30502 -7.96131,0 -16.83808,-4.53231 -16.16339,-7.55121 1.07421,-4.08887 7.48241,-4.70059 13.26356,-8.59763 z" />
      <g
         id="g1165"
         transform="matrix(0.19314054,0,0,0.19314054,100.5578,61.915166)">
        <path
           id="path1161"
           sodipodi:nodetypes="ccscc"
           style="fill:#be8124;fill-rule:evenodd"
           d="m 216.61,280.46 c -33.15,0 -55.8,10.2 -73.96,26.3 10.42,11.77 39.84,-11.9 73,-11.9 34.45,0 67.3,23.56 76.68,11.08 -20.55,-18.48 -41.24,-25.48 -75.72,-25.48 z" />
        <path
           id="path1163"
           sodipodi:nodetypes="ccscc"
           style="fill:#28170b;fill-rule:evenodd"
           d="m 215.91,283.91 c -32.24,0 -53.9,10.61 -70.41,25.6 14.56,10.61 36.6,17.61 68.86,17.61 33.51,0 59.76,-6.81 75.23,-19.23 -18.89,-17.28 -42.74,-23.98 -73.68,-23.98 z" />
      </g>
      <path
         id="path1167"
         sodipodi:rx="5.130095"
         sodipodi:ry="3.0932665"
         style="opacity:0.5;fill:url(#radialGradient1203);fill-rule:evenodd;stroke-width:0.232311"
         sodipodi:type="arc"
         sodipodi:cy="119.73019"
         sodipodi:cx="139.84009"
         sodipodi:end="6.2801146"
         sodipodi:start="0"
         sodipodi:arc-type="slice"
         d="m 144.97018,119.73019 a 5.130095,3.0932665 0 0 1 -5.12615,3.09326 5.130095,3.0932665 0 0 1 -5.13403,-3.08851 5.130095,3.0932665 0 0 1 5.11827,-3.09801 5.130095,3.0932665 0 0 1 5.14189,3.08376 l -5.13007,0.009 z" />
      <path
         id="path1169"
         sodipodi:nodetypes="ccsc"
         style="opacity:0.448786;fill:#ffaaaa;fill-rule:evenodd;stroke-width:0.264583"
         d="m 137.71837,97.782082 c 8.04862,3.097208 1.39171,24.180268 0.90752,25.426458 -2.80723,-1.57163 -2.33363,-11.64987 -6.56696,-10.78653 -6.68337,1.36313 10.46427,-9.12469 5.65944,-14.639928 z" />
      <path
         id="path1171"
         sodipodi:nodetypes="ccczc"
         style="opacity:0.448786;fill:#ffaaaa;fill-rule:evenodd;stroke-width:0.264583"
         d="m 136.76322,101.47646 c 1.90236,-6.39498 -3.78618,10.14862 -7.22841,14.32269 2.89189,7.32208 9.55675,5.77426 12.44864,11.75649 0,0 -7.34483,-10.41003 -5.21758,-14.93017 2.12725,-4.5204 -0.003,-11.14901 -0.003,-11.14901 z" />
      <path
         id="path1173"
         sodipodi:rx="1.0882485"
         sodipodi:ry="0.49684322"
         style="fill:url(#radialGradient1209);fill-rule:evenodd;stroke-width:0.0303963"
         sodipodi:type="arc"
         transform="matrix(0.93105734,-0.36487289,0.17237124,0.98503206,0,0)"
         sodipodi:cy="170.21928"
         sodipodi:cx="100.41702"
         sodipodi:end="6.2801146"
         sodipodi:start="0"
         sodipodi:arc-type="slice"
         d="m 101.50527,170.21928 a 1.0882485,0.49684322 0 0 1 -1.08741,0.49685 1.0882485,0.49684322 0 0 1 -1.089085,-0.49608 1.0882485,0.49684322 0 0 1 1.085745,-0.49761 1.0882485,0.49684322 0 0 1 1.09075,0.49532 l -1.08825,0.002 z" />
      <path
         id="path1175"
         sodipodi:nodetypes="ccsssscsccsssc"
         style="fill:url(#linearGradient1211);fill-rule:evenodd;stroke-width:0.264583"
         d="m 117.26317,119.62608 c -1.63513,0.4789 -4.29525,2.28865 -4.43257,5.93461 0.0886,2.58233 1.99681,5.82612 5.84597,6.62516 3.97722,0.82815 7.39749,-2.29394 6.75984,-6.00075 -0.28046,-1.63777 0.28046,-1.45256 -0.62177,-2.73844 -0.14288,-0.20108 -0.84058,-2.42622 -1.19936,-3.05858 -0.13176,-0.23283 -0.0675,0.21961 -0.16139,0.35719 -0.1606,0.082 -0.31803,-0.0106 -0.44794,-0.11642 -0.94139,-0.77523 -3.01943,-1.61131 -5.74278,-1.00277 z m 1.06971,2.08756 c 2.59794,0 4.91252,1.12184 5.32685,3.53219 0.41461,2.41036 -1.77191,4.90008 -4.41457,4.20158 -3.04588,-0.80962 -3.03398,-2.74372 -3.07022,-3.07445 -0.27782,-2.54794 -0.44027,-4.65932 2.15794,-4.65932 z" />
      <path
         id="path1177"
         sodipodi:nodetypes="ccccccsccsssc"
         style="fill:url(#radialGradient1213);fill-rule:evenodd;stroke:#dadada;stroke-width:0.018179"
         d="m 119.56266,120.9146 c -3.54039,0.0953 -6.55796,3.01361 -5.81845,6.59606 1.3507,5.50598 6.65268,4.9239 10.20022,7.88194 3.44461,3.54542 5.02152,6.79715 5.02152,6.79715 l 1.09802,0.65881 c -1.35731,-5.76527 -2.79929,-11.50673 -4.25979,-17.24554 -0.91017,-3.60892 -2.18546,-4.61963 -5.89756,-4.68842 -0.11589,-0.003 -0.22992,-0.003 -0.34396,0 z m 0.57547,1.82563 c 2.57572,0 4.63682,1.49489 4.86172,3.86556 0.22489,2.37067 -1.6846,4.29683 -4.26032,4.29683 -2.57599,0 -4.31112,-1.71185 -4.53655,-4.08252 -0.22516,-2.37066 1.35917,-4.07987 3.93515,-4.07987 z" />
      <path
         id="path1179"
         sodipodi:rx="1.0882485"
         sodipodi:ry="0.49684322"
         style="fill:url(#radialGradient1215);fill-rule:evenodd;stroke-width:0.0303963"
         sodipodi:type="arc"
         transform="matrix(0.93105734,-0.36487289,0.17237124,0.98503206,0,0)"
         sodipodi:cy="159.1113"
         sodipodi:cx="96.74453"
         sodipodi:end="6.2801146"
         sodipodi:start="0"
         sodipodi:arc-type="slice"
         d="m 97.832778,159.1113 a 1.0882485,0.49684322 0 0 1 -1.087413,0.49684 1.0882485,0.49684322 0 0 1 -1.089082,-0.49608 1.0882485,0.49684322 0 0 1 1.08574,-0.4976 1.0882485,0.49684322 0 0 1 1.09075,0.49531 l -1.088243,0.002 z" />
      <path
         id="path1181"
         sodipodi:nodetypes="csccc"
         style="fill:url(#linearGradient1217);fill-rule:evenodd;stroke-width:0.264583"
         d="m 124.8411,123.05773 c 0,0 0.76994,0.85989 0.82021,0.90752 3.54012,3.45546 4.94241,18.99179 4.94241,18.99179 l -0.60589,-0.15875 z" />
      <path
         id="path1183"
         sodipodi:nodetypes="czcccc"
         style="fill:url(#linearGradient1219);fill-rule:evenodd;stroke-width:0.264583"
         d="m 123.95157,121.96764 c 0,0 0.3974,0.23019 0.8419,0.70909 0.43127,0.46302 1.12448,1.38906 1.12448,1.38906 l 0.50536,0.77787 -1.83357,-2.07168 z" />
      <path
         id="path1185"
         style="fill:#e6e6e6;fill-rule:evenodd;stroke-width:0.264583"
         d="m 120.29106,133.27064 c 1.17581,0.50007 2.34712,1.06363 3.38719,1.91559 3.6076,3.61421 5.33268,6.93208 5.33268,6.93208 l 1.12977,0.67204 c -0.87841,-3.17764 -1.78329,-6.35 -2.69875,-9.51971 z" />
    </g>
    <text
       xml:space="preserve"
       style="font-size:12.3627px;line-height:1.25;font-family:Arial;-inkscape-font-specification:'Arial, Normal';letter-spacing:0px;word-spacing:0px;writing-mode:lr-tb;stroke-width:0.5795"
       x="-85.480789"
       y="137.37933"
       id="text1419"><tspan
         sodipodi:role="line"
         id="tspan1417"
         x="-85.480789"
         y="137.37933"
         style="font-style:normal;font-variant:normal;font-weight:normal;font-stretch:normal;font-size:46.36px;font-family:Z003;-inkscape-font-specification:'Z003, Normal';font-variant-ligatures:normal;font-variant-caps:normal;font-variant-numeric:normal;font-variant-east-asian:normal;stroke-width:0.5795">CoExpresso</tspan></text>
  </g>
</svg>
